{
	"is_employee": false,
	"seen_layout_switch": false,
	"has_visited_new_profile": false,
	"pref_no_profanity": true,
	"has_external_account": false,
	"pref_geopopular": "",
	"seen_redesign_modal": false,
	"pref_show_trending": true,
	"subreddit": {
		"default_set": true,
		"user_is_contributor": false,
		"banner_img": "",
		"restrict_posting": true,
		"user_is_banned": false,
		"free_form_reports": true,
		"community_icon": null,
		"show_media": true,
		"icon_color": "#00000B",
		"user_is_muted": null,
		"display_name": "u_thisisasample",
		"header_img": null,
		"title": "",
		"coins": 0,
		"previous_names": [],
		"over_18": false,
		"icon_size": [
			256,
			256
		],
		"primary_color": "",
		"icon_img": "https://www.redditstatic.com/avatars/defaults/v2/avatar_default_4.png",
		"description": "",
		"allowed_media_in_comments": [],
		"submit_link_label": "",
		"header_size": null,
		"restrict_commenting": false,
		"subscribers": 10,
		"submit_text_label": "",
		"is_default_icon": true,
		"link_flair_position": "",
		"display_name_prefixed": "u/thisisasample",
		"key_color": "",
		"name": "t5_0aa0aa",
		"is_default_banner": true,
		"url": "/user/thisisasample/",
		"quarantine": false,
		"banner_size": null,
		"user_is_moderator": true,
		"accept_followers": true,
		"public_description": "",
		"link_flair_enabled": false,
		"disable_contributor_requests": false,
		"subreddit_type": "user",
		"user_is_subscriber": false
	},
	"pref_show_presence": false,
	"snoovatar_img": "",
	"snoovatar_size": null,
	"gold_expiration": null,
	"has_gold_subscription": false,
	"is_sponsor": false,
	"num_friends": 14,
	"features": {
		"modmail_harassment_filter": true,
		"mod_service_mute_writes": true,
		"promoted_trend_blanks": true,
		"show_amp_link": true,
		"is_email_permission_required": false,
		"mod_awards": true,
		"expensive_coins_package": true,
		"chat_subreddit": true,
		"awards_on_streams": true,
		"mweb_xpromo_modal_listing_click_daily_dismissible_ios": true,
		"cookie_consent_banner": true,
		"modlog_copyright_removal": true,
		"do_not_track": true,
		"images_in_comments": true,
		"mod_service_mute_reads": true,
		"chat_user_settings": true,
		"use_pref_account_deployment": true,
		"mweb_xpromo_interstitial_comments_ios": true,
		"mweb_xpromo_modal_listing_click_daily_dismissible_android": true,
		"premium_subscriptions_table": true,
		"mweb_xpromo_interstitial_comments_android": true,
		"crowd_control_for_post": true,
		"mweb_sharing_web_share_api": {
			"owner": "randomtext",
			"variant": "random2",
			"experiment_id": 111
		},
		"chat_group_rollout": true,
		"resized_styles_images": true,
		"noreferrer_to_noopener": true
	},
	"can_edit_name": false,
	"verified": true,
	"pref_autoplay": false,
	"coins": 0,
	"has_paypal_subscription": false,
	"has_subscribed_to_premium": false,
	"id": "0aa0aa",
	"has_stripe_subscription": false,
	"oauth_client_id": "a1AaaAAaaaAA00aaAaAa_a",
	"can_create_subreddit": true,
	"over_18": true,
	"is_gold": false,
	"is_mod": false,
	"awarder_karma": 100,
	"suspension_expiration_utc": null,
	"has_verified_email": true,
	"is_suspended": false,
	"pref_video_autoplay": false,
	"has_android_subscription": false,
	"in_redesign_beta": true,
	"icon_img": "https://www.redditstatic.com/avatars/defaults/v2/avatar_default_4.png",
	"pref_nightmode": false,
	"awardee_karma": 100,
	"hide_from_robots": true,
	"password_set": true,
	"link_karma": 100,
	"force_password_reset": false,
	"total_karma": 400,
	"seen_give_award_tooltip": false,
	"inbox_count": 1,
	"seen_premium_adblock_modal": false,
	"pref_top_karma_subreddits": true,
	"pref_show_snoovatar": false,
	"name": "thisisasample",
	"pref_clickgadget": 5,
	"created": 1111111111.0,
	"gold_creddits": 0,
	"created_utc": 1111111111.0,
	"has_ios_subscription": false,
	"pref_show_twitter": false,
	"in_beta": false,
	"comment_karma": 100,
	"accept_followers": true,
	"has_subscribed": true,
	"linked_identities": [],
	"seen_subreddit_chat_ftux": false
}